{
	"name": "Default bindings for Rift Headset",
	"controller_type": "rift",
	"last_edited_by": "UnrealEngine",
	"bindings":
	{
		"/actions/main":
		{
			"sources": []
		}
	},
	"description": "VR_Dev-15228867"
}